%YAML 1.1
%TAG !u! tag:unity3d.com,2011:
--- !u!114 &11400000
MonoBehaviour:
  m_ObjectHideFlags: 0
  m_CorrespondingSourceObject: {fileID: 0}
  m_PrefabInstance: {fileID: 0}
  m_PrefabAsset: {fileID: 0}
  m_GameObject: {fileID: 0}
  m_Enabled: 1
  m_EditorHideFlags: 0
  m_Script: {fileID: 11500000, guid: 9f3758f8f58fdef43803eb9be1df0608, type: 3}
  m_Name: PhotonServerSettings
  m_EditorClassIdentifier: 
  AppSettings:
    AppIdRealtime: 38d0d89f-1b27-49fc-8b57-947e6cdd6148
    AppIdFusion: 
    AppIdChat: 
    AppIdVoice: 
    AppVersion: 
    UseNameServer: 1
    FixedRegion: 
    Server: 
    Port: 0
    ProxyServer: 
    Protocol: 0
    EnableProtocolFallback: 1
    AuthMode: 0
    EnableLobbyStatistics: 0
    NetworkLogging: 1
  DevRegion: sa
  PunLogging: 0
  EnableSupportLogger: 0
  RunInBackground: 1
  StartInOfflineMode: 0
  RpcList:
  - ClickRpc
  - DestroyRpc
  - DestroySpaceship
  - Fire
  - RespawnSpaceship
  - RPC_AlterarTag
  - RPC_Destruir
  - RPC_Shoot_Rifle
  - RPC_Shoot_Sniper
  - RPC_TakeDamage
  - RPC_TakeDamageZombie
  - RPC_ChegouNaChegadaFinal
  - RPC_ChegouPlayer
  - RPC_ChegueiNaChegadaFinal
  - RPC_AtualizarColocacaoAtual
  - RPC_AlguemChegouNaChegadaFinal
  - RPC_SendoEmpurrado
  - RPC_Empurrao
  - RPC_IniciarCorrida
  - RPC_IniciarContagemRegressiva
  - RPC_AcoesEmpurrao
  - RPC_AtualizarIndexMapas
  - RPC_AlguemKitouDoCompetitivo
  DisableAutoOpenWizard: 1
  ShowSettings: 1
  DevRegionSetOnce: 1
