%YAML 1.1
%TAG !u! tag:unity3d.com,2011:
--- !u!74 &7400000
AnimationClip:
  m_ObjectHideFlags: 0
  m_CorrespondingSourceObject: {fileID: 0}
  m_PrefabInstance: {fileID: 0}
  m_PrefabAsset: {fileID: 0}
  m_Name: fechando-90x
  serializedVersion: 6
  m_Legacy: 1
  m_Compressed: 0
  m_UseHighQualityCurve: 1
  m_RotationCurves:
  - curve:
      serializedVersion: 2
      m_Curve:
      - serializedVersion: 3
        time: 0
        value: {x: -0.0025423106, y: -0.00007404806, z: 0.7071022, w: 0.7071067}
        inSlope: {x: 0.0012258113, y: -0.00015987082, z: -0.27562022, w: 0.27384996}
        outSlope: {x: 0.0012258113, y: -0.00015987082, z: -0.27562022, w: 0.27384996}
        tangentMode: 0
        weightedMode: 0
        inWeight: {x: 0.33333334, y: 0.33333334, z: 0.33333334, w: 0.33333334}
        outWeight: {x: 0.33333334, y: 0.33333334, z: 0.33333334, w: 0.33333334}
      - serializedVersion: 3
        time: 0.016666668
        value: {x: -0.0025218804, y: -0.000076712575, z: 0.7025085, w: 0.7116709}
        inSlope: {x: 0.0022959218, y: -0.0002771511, z: -0.52443266, w: 0.51178515}
        outSlope: {x: 0.0022959218, y: -0.0002771511, z: -0.52443266, w: 0.51178515}
        tangentMode: 0
        weightedMode: 0
        inWeight: {x: 0.33333334, y: 0.33333334, z: 0.33333334, w: 0.33333334}
        outWeight: {x: 0.33333334, y: 0.33333334, z: 0.33333334, w: 0.33333334}
      - serializedVersion: 3
        time: 0.033333335
        value: {x: -0.00246578, y: -0.00008328643, z: 0.6896211, w: 0.7241662}
        inSlope: {x: 0.0041920687, y: -0.00041624525, z: -0.98537374, w: 0.92972326}
        outSlope: {x: 0.0041920687, y: -0.00041624525, z: -0.98537374, w: 0.92972326}
        tangentMode: 0
        weightedMode: 0
        inWeight: {x: 0.33333334, y: 0.33333334, z: 0.33333334, w: 0.33333334}
        outWeight: {x: 0.33333334, y: 0.33333334, z: 0.33333334, w: 0.33333334}
      - serializedVersion: 3
        time: 0.050000004
        value: {x: -0.0023821448, y: -0.00009058742, z: 0.6696627, w: 0.74266165}
        inSlope: {x: 0.0055933977, y: -0.00035717036, z: -1.3736522, w: 1.2299001}
        outSlope: {x: 0.0055933977, y: -0.00035717036, z: -1.3736522, w: 1.2299001}
        tangentMode: 0
        weightedMode: 0
        inWeight: {x: 0.33333334, y: 0.33333334, z: 0.33333334, w: 0.33333334}
        outWeight: {x: 0.33333334, y: 0.33333334, z: 0.33333334, w: 0.33333334}
      - serializedVersion: 3
        time: 0.06666667
        value: {x: -0.0022793333, y: -0.00009519211, z: 0.6438327, w: 0.7651629}
        inSlope: {x: 0.006496199, y: -0.00011994505, z: -1.686743, w: 1.4123459}
        outSlope: {x: 0.006496199, y: -0.00011994505, z: -1.686743, w: 1.4123459}
        tangentMode: 0
        weightedMode: 0
        inWeight: {x: 0.33333334, y: 0.33333334, z: 0.33333334, w: 0.33333334}
        outWeight: {x: 0.33333334, y: 0.33333334, z: 0.33333334, w: 0.33333334}
      - serializedVersion: 3
        time: 0.083333336
        value: {x: -0.0021656048, y: -0.000094585586, z: 0.61343795, w: 0.78973985}
        inSlope: {x: 0.00691755, y: 0.0002183713, z: -1.9157162, w: 1.4840539}
        outSlope: {x: 0.00691755, y: 0.0002183713, z: -1.9157162, w: 1.4840539}
        tangentMode: 0
        weightedMode: 0
        inWeight: {x: 0.33333334, y: 0.33333334, z: 0.33333334, w: 0.33333334}
        outWeight: {x: 0.33333334, y: 0.33333334, z: 0.33333334, w: 0.33333334}
      - serializedVersion: 3
        time: 0.1
        value: {x: -0.0020487483, y: -0.00008791307, z: 0.5799755, w: 0.81463134}
        inSlope: {x: 0.0068974197, y: 0.0005475758, z: -2.0481653, w: 1.457584}
        outSlope: {x: 0.0068974197, y: 0.0005475758, z: -2.0481653, w: 1.457584}
        tangentMode: 0
        weightedMode: 0
        inWeight: {x: 0.33333334, y: 0.33333334, z: 0.33333334, w: 0.33333334}
        outWeight: {x: 0.33333334, y: 0.33333334, z: 0.33333334, w: 0.33333334}
      - serializedVersion: 3
        time: 0.11666667
        value: {x: -0.0019356909, y: -0.00007633306, z: 0.5451658, w: 0.838326}
        inSlope: {x: 0.0064966967, y: 0.0007470283, z: -2.070869, w: 1.3493762}
        outSlope: {x: 0.0064966967, y: 0.0007470283, z: -2.070869, w: 1.3493762}
        tangentMode: 0
        weightedMode: 0
        inWeight: {x: 0.33333334, y: 0.33333334, z: 0.33333334, w: 0.33333334}
        outWeight: {x: 0.33333334, y: 0.33333334, z: 0.33333334, w: 0.33333334}
      - serializedVersion: 3
        time: 0.13333334
        value: {x: -0.0018321917, y: -0.00006301212, z: 0.5109465, w: 0.85961056}
        inSlope: {x: 0.0057887826, y: 0.0007051589, z: -1.9719687, w: 1.1775146}
        outSlope: {x: 0.0057887826, y: 0.0007051589, z: -1.9719687, w: 1.1775146}
        tangentMode: 0
        weightedMode: 0
        inWeight: {x: 0.33333334, y: 0.33333334, z: 0.33333334, w: 0.33333334}
        outWeight: {x: 0.33333334, y: 0.33333334, z: 0.33333334, w: 0.33333334}
      - serializedVersion: 3
        time: 0.15
        value: {x: -0.0017427314, y: -0.00005282776, z: 0.47943348, w: 0.8775765}
        inSlope: {x: 0.004844601, y: 0.00033412015, z: -1.7425652, w: 0.95907044}
        outSlope: {x: 0.004844601, y: 0.00033412015, z: -1.7425652, w: 0.95907044}
        tangentMode: 0
        weightedMode: 0
        inWeight: {x: 0.33333334, y: 0.33333334, z: 0.33333334, w: 0.33333334}
        outWeight: {x: 0.33333334, y: 0.33333334, z: 0.33333334, w: 0.33333334}
      - serializedVersion: 3
        time: 0.16666667
        value: {x: -0.001670705, y: -0.000051874784, z: 0.452861, w: 0.89157957}
        inSlope: {x: 0.0041857725, y: -0.00022718802, z: -1.5251551, w: 0.7775653}
        outSlope: {x: 0.0041857725, y: -0.00022718802, z: -1.5251551, w: 0.7775653}
        tangentMode: 0
        weightedMode: 0
        inWeight: {x: 0.33333334, y: 0.33333334, z: 0.33333334, w: 0.33333334}
        outWeight: {x: 0.33333334, y: 0.33333334, z: 0.33333334, w: 0.33333334}
      - serializedVersion: 3
        time: 0.18333334
        value: {x: -0.0016032057, y: -0.000060400693, z: 0.42859498, w: 0.9034953}
        inSlope: {x: 0.0043365876, y: -0.0006294251, z: -1.506571, w: 0.7132996}
        outSlope: {x: 0.0043365876, y: -0.0006294251, z: -1.506571, w: 0.7132996}
        tangentMode: 0
        weightedMode: 0
        inWeight: {x: 0.33333334, y: 0.33333334, z: 0.33333334, w: 0.33333334}
        outWeight: {x: 0.33333334, y: 0.33333334, z: 0.33333334, w: 0.33333334}
      - serializedVersion: 3
        time: 0.2
        value: {x: -0.0015261521, y: -0.00007285562, z: 0.40264198, w: 0.9153562}
        inSlope: {x: 0.004874538, y: -0.0008071948, z: -1.6000729, w: 0.70270485}
        outSlope: {x: 0.004874538, y: -0.0008071948, z: -1.6000729, w: 0.70270485}
        tangentMode: 0
        weightedMode: 0
        inWeight: {x: 0.33333334, y: 0.33333334, z: 0.33333334, w: 0.33333334}
        outWeight: {x: 0.33333334, y: 0.33333334, z: 0.33333334, w: 0.33333334}
      - serializedVersion: 3
        time: 0.21666667
        value: {x: -0.0014407211, y: -0.000087307184, z: 0.37525922, w: 0.9269188}
        inSlope: {x: 0.0053391643, y: -0.00087489176, z: -1.6775842, w: 0.6783146}
        outSlope: {x: 0.0053391643, y: -0.00087489176, z: -1.6775842, w: 0.6783146}
        tangentMode: 0
        weightedMode: 0
        inWeight: {x: 0.33333334, y: 0.33333334, z: 0.33333334, w: 0.33333334}
        outWeight: {x: 0.33333334, y: 0.33333334, z: 0.33333334, w: 0.33333334}
      - serializedVersion: 3
        time: 0.23333333
        value: {x: -0.00134818, y: -0.000102018676, z: 0.3467225, w: 0.9379667}
        inSlope: {x: 0.005724889, y: -0.00084549136, z: -1.7380009, w: 0.6419081}
        outSlope: {x: 0.005724889, y: -0.00084549136, z: -1.7380009, w: 0.6419081}
        tangentMode: 0
        weightedMode: 0
        inWeight: {x: 0.33333334, y: 0.33333334, z: 0.33333334, w: 0.33333334}
        outWeight: {x: 0.33333334, y: 0.33333334, z: 0.33333334, w: 0.33333334}
      - serializedVersion: 3
        time: 0.25
        value: {x: -0.0012498915, y: -0.00011549023, z: 0.31732586, w: 0.94831574}
        inSlope: {x: 0.0060262475, y: -0.0007342641, z: -1.7802968, w: 0.59548235}
        outSlope: {x: 0.0060262475, y: -0.0007342641, z: -1.7802968, w: 0.59548235}
        tangentMode: 0
        weightedMode: 0
        inWeight: {x: 0.33333334, y: 0.33333334, z: 0.33333334, w: 0.33333334}
        outWeight: {x: 0.33333334, y: 0.33333334, z: 0.33333334, w: 0.33333334}
      - serializedVersion: 3
        time: 0.26666668
        value: {x: -0.001147305, y: -0.00012649415, z: 0.28737926, w: 0.9578161}
        inSlope: {x: 0.0062384987, y: -0.00055827445, z: -1.8035686, w: 0.54120135}
        outSlope: {x: 0.0062384987, y: -0.00055827445, z: -1.8035686, w: 0.54120135}
        tangentMode: 0
        weightedMode: 0
        inWeight: {x: 0.33333334, y: 0.33333334, z: 0.33333334, w: 0.33333334}
        outWeight: {x: 0.33333334, y: 0.33333334, z: 0.33333334, w: 0.33333334}
      - serializedVersion: 3
        time: 0.28333336
        value: {x: -0.0010419413, y: -0.00013409939, z: 0.25720686, w: 0.9663558}
        inSlope: {x: 0.0063580456, y: -0.0003357901, z: -1.8070527, w: 0.4813363}
        outSlope: {x: 0.0063580456, y: -0.0003357901, z: -1.8070527, w: 0.4813363}
        tangentMode: 0
        weightedMode: 0
        inWeight: {x: 0.33333334, y: 0.33333334, z: 0.33333334, w: 0.33333334}
        outWeight: {x: 0.33333334, y: 0.33333334, z: 0.33333334, w: 0.33333334}
      - serializedVersion: 3
        time: 0.30000004
        value: {x: -0.00093537, y: -0.00013768717, z: 0.22714412, w: 0.9738607}
        inSlope: {x: 0.0063827704, y: -0.00008570096, z: -1.7901764, w: 0.41819358}
        outSlope: {x: 0.0063827704, y: -0.00008570096, z: -1.7901764, w: 0.41819358}
        tangentMode: 0
        weightedMode: 0
        inWeight: {x: 0.33333334, y: 0.33333334, z: 0.33333334, w: 0.33333334}
        outWeight: {x: 0.33333334, y: 0.33333334, z: 0.33333334, w: 0.33333334}
      - serializedVersion: 3
        time: 0.31666672
        value: {x: -0.00082918216, y: -0.00013695609, z: 0.19753426, w: 0.9802956}
        inSlope: {x: 0.0063121477, y: 0.00017312719, z: -1.7525549, w: 0.35406202}
        outSlope: {x: 0.0063121477, y: 0.00017312719, z: -1.7525549, w: 0.35406202}
        tangentMode: 0
        weightedMode: 0
        inWeight: {x: 0.33333334, y: 0.33333334, z: 0.33333334, w: 0.33333334}
        outWeight: {x: 0.33333334, y: 0.33333334, z: 0.33333334, w: 0.33333334}
      - serializedVersion: 3
        time: 0.3333334
        value: {x: -0.0007249649, y: -0.00013191625, z: 0.16872558, w: 0.98566276}
        inSlope: {x: 0.006147227, y: 0.00042248552, z: -1.6939862, w: 0.29112315}
        outSlope: {x: 0.006147227, y: 0.00042248552, z: -1.6939862, w: 0.29112315}
        tangentMode: 0
        weightedMode: 0
        inWeight: {x: 0.33333334, y: 0.33333334, z: 0.33333334, w: 0.33333334}
        outWeight: {x: 0.33333334, y: 0.33333334, z: 0.33333334, w: 0.33333334}
      - serializedVersion: 3
        time: 0.35000008
        value: {x: -0.0006242744, y: -0.00012287323, z: 0.14106801, w: 0.9899997}
        inSlope: {x: 0.0058904616, y: 0.0006454446, z: -1.6144512, w: 0.23138863}
        outSlope: {x: 0.0058904616, y: 0.0006454446, z: -1.6144512, w: 0.23138863}
        tangentMode: 0
        weightedMode: 0
        inWeight: {x: 0.33333334, y: 0.33333334, z: 0.33333334, w: 0.33333334}
        outWeight: {x: 0.33333334, y: 0.33333334, z: 0.33333334, w: 0.33333334}
      - serializedVersion: 3
        time: 0.36666676
        value: {x: -0.000528616, y: -0.000110401415, z: 0.1149105, w: 0.9933757}
        inSlope: {x: 0.0055453675, y: 0.00082696485, z: -1.5140738, w: 0.17662868}
        outSlope: {x: 0.0055453675, y: 0.00082696485, z: -1.5140738, w: 0.17662868}
        tangentMode: 0
        weightedMode: 0
        inWeight: {x: 0.33333334, y: 0.33333334, z: 0.33333334, w: 0.33333334}
        outWeight: {x: 0.33333334, y: 0.33333334, z: 0.33333334, w: 0.33333334}
      - serializedVersion: 3
        time: 0.38333344
        value: {x: -0.0004394287, y: -0.00009530771, z: 0.090598844, w: 0.99588734}
        inSlope: {x: 0.005116094, y: 0.0009544249, z: -1.3931029, w: 0.12831499}
        outSlope: {x: 0.005116094, y: 0.0009544249, z: -1.3931029, w: 0.12831499}
        tangentMode: 0
        weightedMode: 0
        inWeight: {x: 0.33333334, y: 0.33333334, z: 0.33333334, w: 0.33333334}
        outWeight: {x: 0.33333334, y: 0.33333334, z: 0.33333334, w: 0.33333334}
      - serializedVersion: 3
        time: 0.40000013
        value: {x: -0.00035807941, y: -0.000078587225, z: 0.0684737, w: 0.9976529}
        inSlope: {x: 0.004606897, y: 0.0010181263, z: -1.251864, w: 0.08753292}
        outSlope: {x: 0.004606897, y: 0.0010181263, z: -1.251864, w: 0.08753292}
        tangentMode: 0
        weightedMode: 0
        inWeight: {x: 0.33333334, y: 0.33333334, z: 0.33333334, w: 0.33333334}
        outWeight: {x: 0.33333334, y: 0.33333334, z: 0.33333334, w: 0.33333334}
      - serializedVersion: 3
        time: 0.4166668
        value: {x: -0.00028586533, y: -0.00006137014, z: 0.048870012, w: 0.9988051}
        inSlope: {x: 0.004021563, y: 0.0010117546, z: -1.0907185, w: 0.05493696}
        outSlope: {x: 0.004021563, y: 0.0010117546, z: -1.0907185, w: 0.05493696}
        tangentMode: 0
        weightedMode: 0
        inWeight: {x: 0.33333334, y: 0.33333334, z: 0.33333334, w: 0.33333334}
        outWeight: {x: 0.33333334, y: 0.33333334, z: 0.33333334, w: 0.33333334}
      - serializedVersion: 3
        time: 0.4333335
        value: {x: -0.0002240272, y: -0.000044862045, z: 0.03211638, w: 0.9994841}
        inSlope: {x: 0.0033628256, y: 0.0009327964, z: -0.9100236, w: 0.030693386}
        outSlope: {x: 0.0033628256, y: 0.0009327964, z: -0.9100236, w: 0.030693386}
        tangentMode: 0
        weightedMode: 0
        inWeight: {x: 0.33333334, y: 0.33333334, z: 0.33333334, w: 0.33333334}
        outWeight: {x: 0.33333334, y: 0.33333334, z: 0.33333334, w: 0.33333334}
      - serializedVersion: 3
        time: 0.45000017
        value: {x: -0.00017377106, y: -0.000030276902, z: 0.018535865, w: 0.9998282}
        inSlope: {x: 0.002631852, y: 0.000782956, z: -0.7100915, w: 0.014405239}
        outSlope: {x: 0.002631852, y: 0.000782956, z: -0.7100915, w: 0.014405239}
        tangentMode: 0
        weightedMode: 0
        inWeight: {x: 0.33333334, y: 0.33333334, z: 0.33333334, w: 0.33333334}
        outWeight: {x: 0.33333334, y: 0.33333334, z: 0.33333334, w: 0.33333334}
      - serializedVersion: 3
        time: 0.46666685
        value: {x: -0.00013629872, y: -0.000018763489, z: 0.008446645, w: 0.9999643}
        inSlope: {x: 0.0018277604, y: 0.00056857575, z: -0.49116507, w: 0.005083676}
        outSlope: {x: 0.0018277604, y: 0.00056857575, z: -0.49116507, w: 0.005083676}
        tangentMode: 0
        weightedMode: 0
        inWeight: {x: 0.33333334, y: 0.33333334, z: 0.33333334, w: 0.33333334}
        outWeight: {x: 0.33333334, y: 0.33333334, z: 0.33333334, w: 0.33333334}
      - serializedVersion: 3
        time: 0.48333353
        value: {x: -0.00011284566, y: -0.0000113243605, z: 0.0021636821, w: 0.9999977}
        inSlope: {x: 0.00094737124, y: 0.000301106, z: -0.25339997, w: 0.0010710955}
        outSlope: {x: 0.00094737124, y: 0.000301106, z: -0.25339997, w: 0.0010710955}
        tangentMode: 0
        weightedMode: 0
        inWeight: {x: 0.33333334, y: 0.33333334, z: 0.33333334, w: 0.33333334}
        outWeight: {x: 0.33333334, y: 0.33333334, z: 0.33333334, w: 0.33333334}
      - serializedVersion: 3
        time: 0.5
        value: {x: -0.00010471976, y: -0.000008726646, z: -9.1385227e-10, w: 1}
        inSlope: {x: 0.00048755962, y: 0.00015586468, z: -0.12982251, w: 0.0001394765}
        outSlope: {x: 0.00048755962, y: 0.00015586468, z: -0.12982251, w: 0.0001394765}
        tangentMode: 0
        weightedMode: 0
        inWeight: {x: 0.33333334, y: 0.33333334, z: 0.33333334, w: 0.33333334}
        outWeight: {x: 0.33333334, y: 0.33333334, z: 0.33333334, w: 0.33333334}
      m_PreInfinity: 2
      m_PostInfinity: 2
      m_RotationOrder: 4
    path: 
  m_CompressedRotationCurves: []
  m_EulerCurves: []
  m_PositionCurves: []
  m_ScaleCurves: []
  m_FloatCurves: []
  m_PPtrCurves: []
  m_SampleRate: 60
  m_WrapMode: 0
  m_Bounds:
    m_Center: {x: 0, y: 0, z: 0}
    m_Extent: {x: 0, y: 0, z: 0}
  m_ClipBindingConstant:
    genericBindings: []
    pptrCurveMapping: []
  m_AnimationClipSettings:
    serializedVersion: 2
    m_AdditiveReferencePoseClip: {fileID: 0}
    m_AdditiveReferencePoseTime: 0
    m_StartTime: 0
    m_StopTime: 0.5
    m_OrientationOffsetY: 0
    m_Level: 0
    m_CycleOffset: 0
    m_HasAdditiveReferencePose: 0
    m_LoopTime: 1
    m_LoopBlend: 0
    m_LoopBlendOrientation: 0
    m_LoopBlendPositionY: 0
    m_LoopBlendPositionXZ: 0
    m_KeepOriginalOrientation: 0
    m_KeepOriginalPositionY: 1
    m_KeepOriginalPositionXZ: 0
    m_HeightFromFeet: 0
    m_Mirror: 0
  m_EditorCurves:
  - curve:
      serializedVersion: 2
      m_Curve:
      - serializedVersion: 3
        time: 0
        value: -0.0025423106
        inSlope: 0.0012258113
        outSlope: 0.0012258113
        tangentMode: 0
        weightedMode: 0
        inWeight: 0.33333334
        outWeight: 0.33333334
      - serializedVersion: 3
        time: 0.016666668
        value: -0.0025218804
        inSlope: 0.0022959218
        outSlope: 0.0022959218
        tangentMode: 0
        weightedMode: 0
        inWeight: 0.33333334
        outWeight: 0.33333334
      - serializedVersion: 3
        time: 0.033333335
        value: -0.00246578
        inSlope: 0.0041920687
        outSlope: 0.0041920687
        tangentMode: 0
        weightedMode: 0
        inWeight: 0.33333334
        outWeight: 0.33333334
      - serializedVersion: 3
        time: 0.050000004
        value: -0.0023821448
        inSlope: 0.0055933977
        outSlope: 0.0055933977
        tangentMode: 0
        weightedMode: 0
        inWeight: 0.33333334
        outWeight: 0.33333334
      - serializedVersion: 3
        time: 0.06666667
        value: -0.0022793333
        inSlope: 0.006496199
        outSlope: 0.006496199
        tangentMode: 0
        weightedMode: 0
        inWeight: 0.33333334
        outWeight: 0.33333334
      - serializedVersion: 3
        time: 0.083333336
        value: -0.0021656048
        inSlope: 0.00691755
        outSlope: 0.00691755
        tangentMode: 0
        weightedMode: 0
        inWeight: 0.33333334
        outWeight: 0.33333334
      - serializedVersion: 3
        time: 0.1
        value: -0.0020487483
        inSlope: 0.0068974197
        outSlope: 0.0068974197
        tangentMode: 0
        weightedMode: 0
        inWeight: 0.33333334
        outWeight: 0.33333334
      - serializedVersion: 3
        time: 0.11666667
        value: -0.0019356909
        inSlope: 0.0064966967
        outSlope: 0.0064966967
        tangentMode: 0
        weightedMode: 0
        inWeight: 0.33333334
        outWeight: 0.33333334
      - serializedVersion: 3
        time: 0.13333334
        value: -0.0018321917
        inSlope: 0.0057887826
        outSlope: 0.0057887826
        tangentMode: 0
        weightedMode: 0
        inWeight: 0.33333334
        outWeight: 0.33333334
      - serializedVersion: 3
        time: 0.15
        value: -0.0017427314
        inSlope: 0.004844601
        outSlope: 0.004844601
        tangentMode: 0
        weightedMode: 0
        inWeight: 0.33333334
        outWeight: 0.33333334
      - serializedVersion: 3
        time: 0.16666667
        value: -0.001670705
        inSlope: 0.0041857725
        outSlope: 0.0041857725
        tangentMode: 0
        weightedMode: 0
        inWeight: 0.33333334
        outWeight: 0.33333334
      - serializedVersion: 3
        time: 0.18333334
        value: -0.0016032057
        inSlope: 0.0043365876
        outSlope: 0.0043365876
        tangentMode: 0
        weightedMode: 0
        inWeight: 0.33333334
        outWeight: 0.33333334
      - serializedVersion: 3
        time: 0.2
        value: -0.0015261521
        inSlope: 0.004874538
        outSlope: 0.004874538
        tangentMode: 0
        weightedMode: 0
        inWeight: 0.33333334
        outWeight: 0.33333334
      - serializedVersion: 3
        time: 0.21666667
        value: -0.0014407211
        inSlope: 0.0053391643
        outSlope: 0.0053391643
        tangentMode: 0
        weightedMode: 0
        inWeight: 0.33333334
        outWeight: 0.33333334
      - serializedVersion: 3
        time: 0.23333333
        value: -0.00134818
        inSlope: 0.005724889
        outSlope: 0.005724889
        tangentMode: 0
        weightedMode: 0
        inWeight: 0.33333334
        outWeight: 0.33333334
      - serializedVersion: 3
        time: 0.25
        value: -0.0012498915
        inSlope: 0.0060262475
        outSlope: 0.0060262475
        tangentMode: 0
        weightedMode: 0
        inWeight: 0.33333334
        outWeight: 0.33333334
      - serializedVersion: 3
        time: 0.26666668
        value: -0.001147305
        inSlope: 0.0062384987
        outSlope: 0.0062384987
        tangentMode: 0
        weightedMode: 0
        inWeight: 0.33333334
        outWeight: 0.33333334
      - serializedVersion: 3
        time: 0.28333336
        value: -0.0010419413
        inSlope: 0.0063580456
        outSlope: 0.0063580456
        tangentMode: 0
        weightedMode: 0
        inWeight: 0.33333334
        outWeight: 0.33333334
      - serializedVersion: 3
        time: 0.30000004
        value: -0.00093537
        inSlope: 0.0063827704
        outSlope: 0.0063827704
        tangentMode: 0
        weightedMode: 0
        inWeight: 0.33333334
        outWeight: 0.33333334
      - serializedVersion: 3
        time: 0.31666672
        value: -0.00082918216
        inSlope: 0.0063121477
        outSlope: 0.0063121477
        tangentMode: 0
        weightedMode: 0
        inWeight: 0.33333334
        outWeight: 0.33333334
      - serializedVersion: 3
        time: 0.3333334
        value: -0.0007249649
        inSlope: 0.006147227
        outSlope: 0.006147227
        tangentMode: 0
        weightedMode: 0
        inWeight: 0.33333334
        outWeight: 0.33333334
      - serializedVersion: 3
        time: 0.35000008
        value: -0.0006242744
        inSlope: 0.0058904616
        outSlope: 0.0058904616
        tangentMode: 0
        weightedMode: 0
        inWeight: 0.33333334
        outWeight: 0.33333334
      - serializedVersion: 3
        time: 0.36666676
        value: -0.000528616
        inSlope: 0.0055453675
        outSlope: 0.0055453675
        tangentMode: 0
        weightedMode: 0
        inWeight: 0.33333334
        outWeight: 0.33333334
      - serializedVersion: 3
        time: 0.38333344
        value: -0.0004394287
        inSlope: 0.005116094
        outSlope: 0.005116094
        tangentMode: 0
        weightedMode: 0
        inWeight: 0.33333334
        outWeight: 0.33333334
      - serializedVersion: 3
        time: 0.40000013
        value: -0.00035807941
        inSlope: 0.004606897
        outSlope: 0.004606897
        tangentMode: 0
        weightedMode: 0
        inWeight: 0.33333334
        outWeight: 0.33333334
      - serializedVersion: 3
        time: 0.4166668
        value: -0.00028586533
        inSlope: 0.004021563
        outSlope: 0.004021563
        tangentMode: 0
        weightedMode: 0
        inWeight: 0.33333334
        outWeight: 0.33333334
      - serializedVersion: 3
        time: 0.4333335
        value: -0.0002240272
        inSlope: 0.0033628256
        outSlope: 0.0033628256
        tangentMode: 0
        weightedMode: 0
        inWeight: 0.33333334
        outWeight: 0.33333334
      - serializedVersion: 3
        time: 0.45000017
        value: -0.00017377106
        inSlope: 0.002631852
        outSlope: 0.002631852
        tangentMode: 0
        weightedMode: 0
        inWeight: 0.33333334
        outWeight: 0.33333334
      - serializedVersion: 3
        time: 0.46666685
        value: -0.00013629872
        inSlope: 0.0018277604
        outSlope: 0.0018277604
        tangentMode: 0
        weightedMode: 0
        inWeight: 0.33333334
        outWeight: 0.33333334
      - serializedVersion: 3
        time: 0.48333353
        value: -0.00011284566
        inSlope: 0.00094737124
        outSlope: 0.00094737124
        tangentMode: 0
        weightedMode: 0
        inWeight: 0.33333334
        outWeight: 0.33333334
      - serializedVersion: 3
        time: 0.5
        value: -0.00010471976
        inSlope: 0.00048755962
        outSlope: 0.00048755962
        tangentMode: 0
        weightedMode: 0
        inWeight: 0.33333334
        outWeight: 0.33333334
      m_PreInfinity: 2
      m_PostInfinity: 2
      m_RotationOrder: 4
    attribute: m_LocalRotation.x
    path: 
    classID: 4
    script: {fileID: 0}
  - curve:
      serializedVersion: 2
      m_Curve:
      - serializedVersion: 3
        time: 0
        value: -0.00007404806
        inSlope: -0.00015987082
        outSlope: -0.00015987082
        tangentMode: 0
        weightedMode: 0
        inWeight: 0.33333334
        outWeight: 0.33333334
      - serializedVersion: 3
        time: 0.016666668
        value: -0.000076712575
        inSlope: -0.0002771511
        outSlope: -0.0002771511
        tangentMode: 0
        weightedMode: 0
        inWeight: 0.33333334
        outWeight: 0.33333334
      - serializedVersion: 3
        time: 0.033333335
        value: -0.00008328643
        inSlope: -0.00041624525
        outSlope: -0.00041624525
        tangentMode: 0
        weightedMode: 0
        inWeight: 0.33333334
        outWeight: 0.33333334
      - serializedVersion: 3
        time: 0.050000004
        value: -0.00009058742
        inSlope: -0.00035717036
        outSlope: -0.00035717036
        tangentMode: 0
        weightedMode: 0
        inWeight: 0.33333334
        outWeight: 0.33333334
      - serializedVersion: 3
        time: 0.06666667
        value: -0.00009519211
        inSlope: -0.00011994505
        outSlope: -0.00011994505
        tangentMode: 0
        weightedMode: 0
        inWeight: 0.33333334
        outWeight: 0.33333334
      - serializedVersion: 3
        time: 0.083333336
        value: -0.000094585586
        inSlope: 0.0002183713
        outSlope: 0.0002183713
        tangentMode: 0
        weightedMode: 0
        inWeight: 0.33333334
        outWeight: 0.33333334
      - serializedVersion: 3
        time: 0.1
        value: -0.00008791307
        inSlope: 0.0005475758
        outSlope: 0.0005475758
        tangentMode: 0
        weightedMode: 0
        inWeight: 0.33333334
        outWeight: 0.33333334
      - serializedVersion: 3
        time: 0.11666667
        value: -0.00007633306
        inSlope: 0.0007470283
        outSlope: 0.0007470283
        tangentMode: 0
        weightedMode: 0
        inWeight: 0.33333334
        outWeight: 0.33333334
      - serializedVersion: 3
        time: 0.13333334
        value: -0.00006301212
        inSlope: 0.0007051589
        outSlope: 0.0007051589
        tangentMode: 0
        weightedMode: 0
        inWeight: 0.33333334
        outWeight: 0.33333334
      - serializedVersion: 3
        time: 0.15
        value: -0.00005282776
        inSlope: 0.00033412015
        outSlope: 0.00033412015
        tangentMode: 0
        weightedMode: 0
        inWeight: 0.33333334
        outWeight: 0.33333334
      - serializedVersion: 3
        time: 0.16666667
        value: -0.000051874784
        inSlope: -0.00022718802
        outSlope: -0.00022718802
        tangentMode: 0
        weightedMode: 0
        inWeight: 0.33333334
        outWeight: 0.33333334
      - serializedVersion: 3
        time: 0.18333334
        value: -0.000060400693
        inSlope: -0.0006294251
        outSlope: -0.0006294251
        tangentMode: 0
        weightedMode: 0
        inWeight: 0.33333334
        outWeight: 0.33333334
      - serializedVersion: 3
        time: 0.2
        value: -0.00007285562
        inSlope: -0.0008071948
        outSlope: -0.0008071948
        tangentMode: 0
        weightedMode: 0
        inWeight: 0.33333334
        outWeight: 0.33333334
      - serializedVersion: 3
        time: 0.21666667
        value: -0.000087307184
        inSlope: -0.00087489176
        outSlope: -0.00087489176
        tangentMode: 0
        weightedMode: 0
        inWeight: 0.33333334
        outWeight: 0.33333334
      - serializedVersion: 3
        time: 0.23333333
        value: -0.000102018676
        inSlope: -0.00084549136
        outSlope: -0.00084549136
        tangentMode: 0
        weightedMode: 0
        inWeight: 0.33333334
        outWeight: 0.33333334
      - serializedVersion: 3
        time: 0.25
        value: -0.00011549023
        inSlope: -0.0007342641
        outSlope: -0.0007342641
        tangentMode: 0
        weightedMode: 0
        inWeight: 0.33333334
        outWeight: 0.33333334
      - serializedVersion: 3
        time: 0.26666668
        value: -0.00012649415
        inSlope: -0.00055827445
        outSlope: -0.00055827445
        tangentMode: 0
        weightedMode: 0
        inWeight: 0.33333334
        outWeight: 0.33333334
      - serializedVersion: 3
        time: 0.28333336
        value: -0.00013409939
        inSlope: -0.0003357901
        outSlope: -0.0003357901
        tangentMode: 0
        weightedMode: 0
        inWeight: 0.33333334
        outWeight: 0.33333334
      - serializedVersion: 3
        time: 0.30000004
        value: -0.00013768717
        inSlope: -0.00008570096
        outSlope: -0.00008570096
        tangentMode: 0
        weightedMode: 0
        inWeight: 0.33333334
        outWeight: 0.33333334
      - serializedVersion: 3
        time: 0.31666672
        value: -0.00013695609
        inSlope: 0.00017312719
        outSlope: 0.00017312719
        tangentMode: 0
        weightedMode: 0
        inWeight: 0.33333334
        outWeight: 0.33333334
      - serializedVersion: 3
        time: 0.3333334
        value: -0.00013191625
        inSlope: 0.00042248552
        outSlope: 0.00042248552
        tangentMode: 0
        weightedMode: 0
        inWeight: 0.33333334
        outWeight: 0.33333334
      - serializedVersion: 3
        time: 0.35000008
        value: -0.00012287323
        inSlope: 0.0006454446
        outSlope: 0.0006454446
        tangentMode: 0
        weightedMode: 0
        inWeight: 0.33333334
        outWeight: 0.33333334
      - serializedVersion: 3
        time: 0.36666676
        value: -0.000110401415
        inSlope: 0.00082696485
        outSlope: 0.00082696485
        tangentMode: 0
        weightedMode: 0
        inWeight: 0.33333334
        outWeight: 0.33333334
      - serializedVersion: 3
        time: 0.38333344
        value: -0.00009530771
        inSlope: 0.0009544249
        outSlope: 0.0009544249
        tangentMode: 0
        weightedMode: 0
        inWeight: 0.33333334
        outWeight: 0.33333334
      - serializedVersion: 3
        time: 0.40000013
        value: -0.000078587225
        inSlope: 0.0010181263
        outSlope: 0.0010181263
        tangentMode: 0
        weightedMode: 0
        inWeight: 0.33333334
        outWeight: 0.33333334
      - serializedVersion: 3
        time: 0.4166668
        value: -0.00006137014
        inSlope: 0.0010117546
        outSlope: 0.0010117546
        tangentMode: 0
        weightedMode: 0
        inWeight: 0.33333334
        outWeight: 0.33333334
      - serializedVersion: 3
        time: 0.4333335
        value: -0.000044862045
        inSlope: 0.0009327964
        outSlope: 0.0009327964
        tangentMode: 0
        weightedMode: 0
        inWeight: 0.33333334
        outWeight: 0.33333334
      - serializedVersion: 3
        time: 0.45000017
        value: -0.000030276902
        inSlope: 0.000782956
        outSlope: 0.000782956
        tangentMode: 0
        weightedMode: 0
        inWeight: 0.33333334
        outWeight: 0.33333334
      - serializedVersion: 3
        time: 0.46666685
        value: -0.000018763489
        inSlope: 0.00056857575
        outSlope: 0.00056857575
        tangentMode: 0
        weightedMode: 0
        inWeight: 0.33333334
        outWeight: 0.33333334
      - serializedVersion: 3
        time: 0.48333353
        value: -0.0000113243605
        inSlope: 0.000301106
        outSlope: 0.000301106
        tangentMode: 0
        weightedMode: 0
        inWeight: 0.33333334
        outWeight: 0.33333334
      - serializedVersion: 3
        time: 0.5
        value: -0.000008726646
        inSlope: 0.00015586468
        outSlope: 0.00015586468
        tangentMode: 0
        weightedMode: 0
        inWeight: 0.33333334
        outWeight: 0.33333334
      m_PreInfinity: 2
      m_PostInfinity: 2
      m_RotationOrder: 4
    attribute: m_LocalRotation.y
    path: 
    classID: 4
    script: {fileID: 0}
  - curve:
      serializedVersion: 2
      m_Curve:
      - serializedVersion: 3
        time: 0
        value: 0.7071022
        inSlope: -0.27562022
        outSlope: -0.27562022
        tangentMode: 0
        weightedMode: 0
        inWeight: 0.33333334
        outWeight: 0.33333334
      - serializedVersion: 3
        time: 0.016666668
        value: 0.7025085
        inSlope: -0.52443266
        outSlope: -0.52443266
        tangentMode: 0
        weightedMode: 0
        inWeight: 0.33333334
        outWeight: 0.33333334
      - serializedVersion: 3
        time: 0.033333335
        value: 0.6896211
        inSlope: -0.98537374
        outSlope: -0.98537374
        tangentMode: 0
        weightedMode: 0
        inWeight: 0.33333334
        outWeight: 0.33333334
      - serializedVersion: 3
        time: 0.050000004
        value: 0.6696627
        inSlope: -1.3736522
        outSlope: -1.3736522
        tangentMode: 0
        weightedMode: 0
        inWeight: 0.33333334
        outWeight: 0.33333334
      - serializedVersion: 3
        time: 0.06666667
        value: 0.6438327
        inSlope: -1.686743
        outSlope: -1.686743
        tangentMode: 0
        weightedMode: 0
        inWeight: 0.33333334
        outWeight: 0.33333334
      - serializedVersion: 3
        time: 0.083333336
        value: 0.61343795
        inSlope: -1.9157162
        outSlope: -1.9157162
        tangentMode: 0
        weightedMode: 0
        inWeight: 0.33333334
        outWeight: 0.33333334
      - serializedVersion: 3
        time: 0.1
        value: 0.5799755
        inSlope: -2.0481653
        outSlope: -2.0481653
        tangentMode: 0
        weightedMode: 0
        inWeight: 0.33333334
        outWeight: 0.33333334
      - serializedVersion: 3
        time: 0.11666667
        value: 0.5451658
        inSlope: -2.070869
        outSlope: -2.070869
        tangentMode: 0
        weightedMode: 0
        inWeight: 0.33333334
        outWeight: 0.33333334
      - serializedVersion: 3
        time: 0.13333334
        value: 0.5109465
        inSlope: -1.9719687
        outSlope: -1.9719687
        tangentMode: 0
        weightedMode: 0
        inWeight: 0.33333334
        outWeight: 0.33333334
      - serializedVersion: 3
        time: 0.15
        value: 0.47943348
        inSlope: -1.7425652
        outSlope: -1.7425652
        tangentMode: 0
        weightedMode: 0
        inWeight: 0.33333334
        outWeight: 0.33333334
      - serializedVersion: 3
        time: 0.16666667
        value: 0.452861
        inSlope: -1.5251551
        outSlope: -1.5251551
        tangentMode: 0
        weightedMode: 0
        inWeight: 0.33333334
        outWeight: 0.33333334
      - serializedVersion: 3
        time: 0.18333334
        value: 0.42859498
        inSlope: -1.506571
        outSlope: -1.506571
        tangentMode: 0
        weightedMode: 0
        inWeight: 0.33333334
        outWeight: 0.33333334
      - serializedVersion: 3
        time: 0.2
        value: 0.40264198
        inSlope: -1.6000729
        outSlope: -1.6000729
        tangentMode: 0
        weightedMode: 0
        inWeight: 0.33333334
        outWeight: 0.33333334
      - serializedVersion: 3
        time: 0.21666667
        value: 0.37525922
        inSlope: -1.6775842
        outSlope: -1.6775842
        tangentMode: 0
        weightedMode: 0
        inWeight: 0.33333334
        outWeight: 0.33333334
      - serializedVersion: 3
        time: 0.23333333
        value: 0.3467225
        inSlope: -1.7380009
        outSlope: -1.7380009
        tangentMode: 0
        weightedMode: 0
        inWeight: 0.33333334
        outWeight: 0.33333334
      - serializedVersion: 3
        time: 0.25
        value: 0.31732586
        inSlope: -1.7802968
        outSlope: -1.7802968
        tangentMode: 0
        weightedMode: 0
        inWeight: 0.33333334
        outWeight: 0.33333334
      - serializedVersion: 3
        time: 0.26666668
        value: 0.28737926
        inSlope: -1.8035686
        outSlope: -1.8035686
        tangentMode: 0
        weightedMode: 0
        inWeight: 0.33333334
        outWeight: 0.33333334
      - serializedVersion: 3
        time: 0.28333336
        value: 0.25720686
        inSlope: -1.8070527
        outSlope: -1.8070527
        tangentMode: 0
        weightedMode: 0
        inWeight: 0.33333334
        outWeight: 0.33333334
      - serializedVersion: 3
        time: 0.30000004
        value: 0.22714412
        inSlope: -1.7901764
        outSlope: -1.7901764
        tangentMode: 0
        weightedMode: 0
        inWeight: 0.33333334
        outWeight: 0.33333334
      - serializedVersion: 3
        time: 0.31666672
        value: 0.19753426
        inSlope: -1.7525549
        outSlope: -1.7525549
        tangentMode: 0
        weightedMode: 0
        inWeight: 0.33333334
        outWeight: 0.33333334
      - serializedVersion: 3
        time: 0.3333334
        value: 0.16872558
        inSlope: -1.6939862
        outSlope: -1.6939862
        tangentMode: 0
        weightedMode: 0
        inWeight: 0.33333334
        outWeight: 0.33333334
      - serializedVersion: 3
        time: 0.35000008
        value: 0.14106801
        inSlope: -1.6144512
        outSlope: -1.6144512
        tangentMode: 0
        weightedMode: 0
        inWeight: 0.33333334
        outWeight: 0.33333334
      - serializedVersion: 3
        time: 0.36666676
        value: 0.1149105
        inSlope: -1.5140738
        outSlope: -1.5140738
        tangentMode: 0
        weightedMode: 0
        inWeight: 0.33333334
        outWeight: 0.33333334
      - serializedVersion: 3
        time: 0.38333344
        value: 0.090598844
        inSlope: -1.3931029
        outSlope: -1.3931029
        tangentMode: 0
        weightedMode: 0
        inWeight: 0.33333334
        outWeight: 0.33333334
      - serializedVersion: 3
        time: 0.40000013
        value: 0.0684737
        inSlope: -1.251864
        outSlope: -1.251864
        tangentMode: 0
        weightedMode: 0
        inWeight: 0.33333334
        outWeight: 0.33333334
      - serializedVersion: 3
        time: 0.4166668
        value: 0.048870012
        inSlope: -1.0907185
        outSlope: -1.0907185
        tangentMode: 0
        weightedMode: 0
        inWeight: 0.33333334
        outWeight: 0.33333334
      - serializedVersion: 3
        time: 0.4333335
        value: 0.03211638
        inSlope: -0.9100236
        outSlope: -0.9100236
        tangentMode: 0
        weightedMode: 0
        inWeight: 0.33333334
        outWeight: 0.33333334
      - serializedVersion: 3
        time: 0.45000017
        value: 0.018535865
        inSlope: -0.7100915
        outSlope: -0.7100915
        tangentMode: 0
        weightedMode: 0
        inWeight: 0.33333334
        outWeight: 0.33333334
      - serializedVersion: 3
        time: 0.46666685
        value: 0.008446645
        inSlope: -0.49116507
        outSlope: -0.49116507
        tangentMode: 0
        weightedMode: 0
        inWeight: 0.33333334
        outWeight: 0.33333334
      - serializedVersion: 3
        time: 0.48333353
        value: 0.0021636821
        inSlope: -0.25339997
        outSlope: -0.25339997
        tangentMode: 0
        weightedMode: 0
        inWeight: 0.33333334
        outWeight: 0.33333334
      - serializedVersion: 3
        time: 0.5
        value: -9.1385227e-10
        inSlope: -0.12982251
        outSlope: -0.12982251
        tangentMode: 0
        weightedMode: 0
        inWeight: 0.33333334
        outWeight: 0.33333334
      m_PreInfinity: 2
      m_PostInfinity: 2
      m_RotationOrder: 4
    attribute: m_LocalRotation.z
    path: 
    classID: 4
    script: {fileID: 0}
  - curve:
      serializedVersion: 2
      m_Curve:
      - serializedVersion: 3
        time: 0
        value: 0.7071067
        inSlope: 0.27384996
        outSlope: 0.27384996
        tangentMode: 0
        weightedMode: 0
        inWeight: 0.33333334
        outWeight: 0.33333334
      - serializedVersion: 3
        time: 0.016666668
        value: 0.7116709
        inSlope: 0.51178515
        outSlope: 0.51178515
        tangentMode: 0
        weightedMode: 0
        inWeight: 0.33333334
        outWeight: 0.33333334
      - serializedVersion: 3
        time: 0.033333335
        value: 0.7241662
        inSlope: 0.92972326
        outSlope: 0.92972326
        tangentMode: 0
        weightedMode: 0
        inWeight: 0.33333334
        outWeight: 0.33333334
      - serializedVersion: 3
        time: 0.050000004
        value: 0.74266165
        inSlope: 1.2299001
        outSlope: 1.2299001
        tangentMode: 0
        weightedMode: 0
        inWeight: 0.33333334
        outWeight: 0.33333334
      - serializedVersion: 3
        time: 0.06666667
        value: 0.7651629
        inSlope: 1.4123459
        outSlope: 1.4123459
        tangentMode: 0
        weightedMode: 0
        inWeight: 0.33333334
        outWeight: 0.33333334
      - serializedVersion: 3
        time: 0.083333336
        value: 0.78973985
        inSlope: 1.4840539
        outSlope: 1.4840539
        tangentMode: 0
        weightedMode: 0
        inWeight: 0.33333334
        outWeight: 0.33333334
      - serializedVersion: 3
        time: 0.1
        value: 0.81463134
        inSlope: 1.457584
        outSlope: 1.457584
        tangentMode: 0
        weightedMode: 0
        inWeight: 0.33333334
        outWeight: 0.33333334
      - serializedVersion: 3
        time: 0.11666667
        value: 0.838326
        inSlope: 1.3493762
        outSlope: 1.3493762
        tangentMode: 0
        weightedMode: 0
        inWeight: 0.33333334
        outWeight: 0.33333334
      - serializedVersion: 3
        time: 0.13333334
        value: 0.85961056
        inSlope: 1.1775146
        outSlope: 1.1775146
        tangentMode: 0
        weightedMode: 0
        inWeight: 0.33333334
        outWeight: 0.33333334
      - serializedVersion: 3
        time: 0.15
        value: 0.8775765
        inSlope: 0.95907044
        outSlope: 0.95907044
        tangentMode: 0
        weightedMode: 0
        inWeight: 0.33333334
        outWeight: 0.33333334
      - serializedVersion: 3
        time: 0.16666667
        value: 0.89157957
        inSlope: 0.7775653
        outSlope: 0.7775653
        tangentMode: 0
        weightedMode: 0
        inWeight: 0.33333334
        outWeight: 0.33333334
      - serializedVersion: 3
        time: 0.18333334
        value: 0.9034953
        inSlope: 0.7132996
        outSlope: 0.7132996
        tangentMode: 0
        weightedMode: 0
        inWeight: 0.33333334
        outWeight: 0.33333334
      - serializedVersion: 3
        time: 0.2
        value: 0.9153562
        inSlope: 0.70270485
        outSlope: 0.70270485
        tangentMode: 0
        weightedMode: 0
        inWeight: 0.33333334
        outWeight: 0.33333334
      - serializedVersion: 3
        time: 0.21666667
        value: 0.9269188
        inSlope: 0.6783146
        outSlope: 0.6783146
        tangentMode: 0
        weightedMode: 0
        inWeight: 0.33333334
        outWeight: 0.33333334
      - serializedVersion: 3
        time: 0.23333333
        value: 0.9379667
        inSlope: 0.6419081
        outSlope: 0.6419081
        tangentMode: 0
        weightedMode: 0
        inWeight: 0.33333334
        outWeight: 0.33333334
      - serializedVersion: 3
        time: 0.25
        value: 0.94831574
        inSlope: 0.59548235
        outSlope: 0.59548235
        tangentMode: 0
        weightedMode: 0
        inWeight: 0.33333334
        outWeight: 0.33333334
      - serializedVersion: 3
        time: 0.26666668
        value: 0.9578161
        inSlope: 0.54120135
        outSlope: 0.54120135
        tangentMode: 0
        weightedMode: 0
        inWeight: 0.33333334
        outWeight: 0.33333334
      - serializedVersion: 3
        time: 0.28333336
        value: 0.9663558
        inSlope: 0.4813363
        outSlope: 0.4813363
        tangentMode: 0
        weightedMode: 0
        inWeight: 0.33333334
        outWeight: 0.33333334
      - serializedVersion: 3
        time: 0.30000004
        value: 0.9738607
        inSlope: 0.41819358
        outSlope: 0.41819358
        tangentMode: 0
        weightedMode: 0
        inWeight: 0.33333334
        outWeight: 0.33333334
      - serializedVersion: 3
        time: 0.31666672
        value: 0.9802956
        inSlope: 0.35406202
        outSlope: 0.35406202
        tangentMode: 0
        weightedMode: 0
        inWeight: 0.33333334
        outWeight: 0.33333334
      - serializedVersion: 3
        time: 0.3333334
        value: 0.98566276
        inSlope: 0.29112315
        outSlope: 0.29112315
        tangentMode: 0
        weightedMode: 0
        inWeight: 0.33333334
        outWeight: 0.33333334
      - serializedVersion: 3
        time: 0.35000008
        value: 0.9899997
        inSlope: 0.23138863
        outSlope: 0.23138863
        tangentMode: 0
        weightedMode: 0
        inWeight: 0.33333334
        outWeight: 0.33333334
      - serializedVersion: 3
        time: 0.36666676
        value: 0.9933757
        inSlope: 0.17662868
        outSlope: 0.17662868
        tangentMode: 0
        weightedMode: 0
        inWeight: 0.33333334
        outWeight: 0.33333334
      - serializedVersion: 3
        time: 0.38333344
        value: 0.99588734
        inSlope: 0.12831499
        outSlope: 0.12831499
        tangentMode: 0
        weightedMode: 0
        inWeight: 0.33333334
        outWeight: 0.33333334
      - serializedVersion: 3
        time: 0.40000013
        value: 0.9976529
        inSlope: 0.08753292
        outSlope: 0.08753292
        tangentMode: 0
        weightedMode: 0
        inWeight: 0.33333334
        outWeight: 0.33333334
      - serializedVersion: 3
        time: 0.4166668
        value: 0.9988051
        inSlope: 0.05493696
        outSlope: 0.05493696
        tangentMode: 0
        weightedMode: 0
        inWeight: 0.33333334
        outWeight: 0.33333334
      - serializedVersion: 3
        time: 0.4333335
        value: 0.9994841
        inSlope: 0.030693386
        outSlope: 0.030693386
        tangentMode: 0
        weightedMode: 0
        inWeight: 0.33333334
        outWeight: 0.33333334
      - serializedVersion: 3
        time: 0.45000017
        value: 0.9998282
        inSlope: 0.014405239
        outSlope: 0.014405239
        tangentMode: 0
        weightedMode: 0
        inWeight: 0.33333334
        outWeight: 0.33333334
      - serializedVersion: 3
        time: 0.46666685
        value: 0.9999643
        inSlope: 0.005083676
        outSlope: 0.005083676
        tangentMode: 0
        weightedMode: 0
        inWeight: 0.33333334
        outWeight: 0.33333334
      - serializedVersion: 3
        time: 0.48333353
        value: 0.9999977
        inSlope: 0.0010710955
        outSlope: 0.0010710955
        tangentMode: 0
        weightedMode: 0
        inWeight: 0.33333334
        outWeight: 0.33333334
      - serializedVersion: 3
        time: 0.5
        value: 1
        inSlope: 0.0001394765
        outSlope: 0.0001394765
        tangentMode: 0
        weightedMode: 0
        inWeight: 0.33333334
        outWeight: 0.33333334
      m_PreInfinity: 2
      m_PostInfinity: 2
      m_RotationOrder: 4
    attribute: m_LocalRotation.w
    path: 
    classID: 4
    script: {fileID: 0}
  m_EulerEditorCurves:
  - curve:
      serializedVersion: 2
      m_Curve:
      - serializedVersion: 3
        time: 0
        value: -0.2
        inSlope: 0
        outSlope: 0
        tangentMode: 136
        weightedMode: 0
        inWeight: 0.33333334
        outWeight: 0.33333334
      - serializedVersion: 3
        time: 0.16666667
        value: -0.168
        inSlope: 0.25600004
        outSlope: 0.25600004
        tangentMode: 136
        weightedMode: 0
        inWeight: 0.33333334
        outWeight: 0.33333334
      - serializedVersion: 3
        time: 0.5
        value: -0.012
        inSlope: 0
        outSlope: 0
        tangentMode: 136
        weightedMode: 0
        inWeight: 0.33333334
        outWeight: 0.33333334
      m_PreInfinity: 2
      m_PostInfinity: 2
      m_RotationOrder: 4
    attribute: localEulerAnglesBaked.x
    path: 
    classID: 4
    script: {fileID: 0}
  - curve:
      serializedVersion: 2
      m_Curve:
      - serializedVersion: 3
        time: 0
        value: -0.212
        inSlope: 0
        outSlope: 0
        tangentMode: 136
        weightedMode: 0
        inWeight: 0.33333334
        outWeight: 0.33333334
      - serializedVersion: 3
        time: 0.16666667
        value: -0.092
        inSlope: 0.422
        outSlope: 0.422
        tangentMode: 136
        weightedMode: 0
        inWeight: 0.33333334
        outWeight: 0.33333334
      - serializedVersion: 3
        time: 0.5
        value: -0.001
        inSlope: 0
        outSlope: 0
        tangentMode: 136
        weightedMode: 0
        inWeight: 0.33333334
        outWeight: 0.33333334
      m_PreInfinity: 2
      m_PostInfinity: 2
      m_RotationOrder: 4
    attribute: localEulerAnglesBaked.y
    path: 
    classID: 4
    script: {fileID: 0}
  - curve:
      serializedVersion: 2
      m_Curve:
      - serializedVersion: 3
        time: 0
        value: 90
        inSlope: 0
        outSlope: 0
        tangentMode: 136
        weightedMode: 0
        inWeight: 0.33333334
        outWeight: 0.33333334
      - serializedVersion: 3
        time: 0.16666667
        value: 53.855
        inSlope: -180
        outSlope: -180
        tangentMode: 136
        weightedMode: 0
        inWeight: 0.33333334
        outWeight: 0.33333334
      - serializedVersion: 3
        time: 0.5
        value: 0
        inSlope: 0
        outSlope: 0
        tangentMode: 136
        weightedMode: 0
        inWeight: 0.33333334
        outWeight: 0.33333334
      m_PreInfinity: 2
      m_PostInfinity: 2
      m_RotationOrder: 4
    attribute: localEulerAnglesBaked.z
    path: 
    classID: 4
    script: {fileID: 0}
  m_HasGenericRootTransform: 0
  m_HasMotionFloatCurves: 0
  m_Events: []
